Project2
…
#correlation
sum(is.na(mydata_clean))

## [1] 0

full_all <- mydata_clean[,c(9:(ncol(mydata_clean)-1))];full_all

## # A tibble: 66,329 x 7
##    `overall-rating~ `work-balance-s~ `culture-values~ `carrer-opportu~
##               <dbl>            <dbl>            <dbl>            <dbl>
##  1                5                4                5                5
##  2                4                2                3                3
##  3                5                5                4                5
##  4                5                2                5                5
##  5                5                5                5                5
##  6                5                4                4                4
##  7                5                5                4                4
##  8                5                5                5                5
##  9                5                5                5                5
## 10                5                5                5                5
## # ... with 66,319 more rows, and 3 more variables:
## #   `comp-benefit-stars` <dbl>, `senior-mangemnet-stars` <dbl>,
## #   `helpful-count` <dbl>
…
#Ratings of each Review based on Emotions Expressed
mydata_clean%>%
  group_by(company)%>%
  unnest_tokens(output = word, input = summary)%>%
  inner_join(get_sentiments('nrc'))%>%
  group_by(company,sentiment,`overall-ratings`)%>%
  count()  

## # A tibble: 300 x 4
## # Groups:   company, sentiment, overall-ratings [300]
##    company sentiment    `overall-ratings`     n
##    <chr>   <chr>                    <dbl> <int>
##  1 amazon  anger                        1   444
##  2 amazon  anger                        2   310
##  3 amazon  anger                        3   419
##  4 amazon  anger                        4   260
##  5 amazon  anger                        5   129
##  6 amazon  anticipation                 1   452
##  7 amazon  anticipation                 2   683
##  8 amazon  anticipation                 3  1664
##  9 amazon  anticipation                 4  2642
## 10 amazon  anticipation                 5  1799
## # ... with 290 more rows
…
